{
  "configuration": {
    "name": "logger",
    "packages": "com.novikdm",
    "properties": {
      "property": { "name": "filename", "value": "logs"}
    },
    "ThresholdFilter": {"level": "trace"},

    "appenders": {
      "appender": [
        { "type": "Console", "name": "ConsoleAppender",
          "PatternLayout": {
            "pattern": "%highlight{%msg}\n"
          },"ThresholdFilter": {"level": "trace"}}
      ]
    },
    "loggers": {
      "logger": [
        { "name": "ConsoleLoger", "level": "trace", "additivity": "false",
          "AppenderRef": {"ref": "ConsoleAppender"}}
      ],
      "root": { "level": "trace", "AppenderRef": { "ref": "ConsoleAppender"}
      }
    }
  }
}